15  
   
C 0 0.762294 0
H 1.01885 1.161924 0
H -0.509377 1.161837 0.882434
H -0.509377 1.161837 -0.882434
C 0 -0.762294 0
H -1.01885 -1.161924 0
H 0.509377 -1.161837 -0.882434
H 0.509377 -1.161837 0.882434
XCH 0.509425 0.962109 0
XCH -0.2546885 0.9620655 0.441217
XCH -0.2546885 0.9620655 -0.441217
XCH -0.509425 -0.962109 0
XCH 0.2546885 -0.9620655 -0.441217
XCH 0.2546885 -0.9620655 0.441217
XCC 0 0 0
